vinijr,135,Sports with a ball,21.3M,Brazil,806.7K,1.4M
emrata,136,Modeling,29.5M,United States,606.1K,967.7K
lanarhoades,137,LifestyleModeling,16.8M,United States,1M,1.7M
britneyspears,138,Music,62.7M,United States,494.6K,685.6K
maluma,139,Music,62.7M,Italy,294.2K,452.1K
josephquinn,844,,2.5M,,0,1.1M
saythename_17,845,Music,9.6M,Indonesia,240.1K,269.6K
ludmilla,846,Music,27.4M,Brazil,64.7K,95.8K
nidhhiagerwal2,847,LifestyleModelingCinema & Actors/actresses,24.3M,India,87.3K,105.7K
anirudhofficial,848,LifestyleMusic,6M,India,342.5K,433.6K
kto_takaya,849,Family,7M,Russia,303.5K,374.4K
you_r_love,850,,5.5M,Indonesia,364.2K,465.3K
dudewithsign,851,,8.1M,United States,204.3K,322.4K
saythename_172,852,Music,9.6M,Indonesia,240.1K,269.6K
ludmilla,853,Music,27.4M,Brazil,64.7K,95.8K
nidhhiagerwal,854,LifestyleModelingCinema & Actors/actresses,24.3M,India,87.3K,105.7K
anirudhofficial2,855,LifestyleMusic,6M,India,342.5K,433.6K
kto_takaya2,856,Family,7M,Russia,303.5K,374.4K
you_r_love,857,,5.5M,Indonesia,364.2K,465.3K
kikakim,858,Lifestyle,6.9M,Kazakhstan,279.9K,370.6K
chelseafc,859,Sports with a ball,34.8M,Indonesia,48.9K,72.7K
luara,860,Music,15.9M,Brazil,95.9K,158.3K
filiperet,861,Lifestyle,6.8M,Brazil,147.9K,379.4K
subo_m,862,Shows,9.8M,Russia,213.8K,262.4K
rogerfederer,863,Sports with a ball,9.6M,Spain,205.3K,265.4K
belindapop,864,Music,15.5M,Mexico,113.6K,162.8K
miketyson,865,Fitness & Gym,19M,United States,102K,131.2K
sonu_sood,866,Cinema & Actors/actresses,14.4M,India,151.5K,172.8K
sinavaliollah,867,Shows,7.3M,Iran,277.1K,350.1K
jamorant,868,LifestyleSports with a ball,7.3M,United States,212K,342.5K
priyankaamohanofficial,869,LifestyleCinema & Actors/actresses,3.2M,India,677K,777K
massafera,870,Cinema & Actors/actressesLifestyle,25.3M,Brazil,67.2K,97.8K